…
전체 데이터 보기
----------------

``` r
# 1.1 data.name
# console에 출력이 됨
# 데이터가 많으면 다 보여주지 못하고 일부만 보여줌
diamonds # 총 53940행
```

    ## # A tibble: 53,940 x 10
    ##    carat cut       color clarity depth table price     x     y     z
    ##    <dbl> <ord>     <ord> <ord>   <dbl> <dbl> <int> <dbl> <dbl> <dbl>
    ##  1 0.23  Ideal     E     SI2      61.5    55   326  3.95  3.98  2.43
    ##  2 0.21  Premium   E     SI1      59.8    61   326  3.89  3.84  2.31
    ##  3 0.23  Good      E     VS1      56.9    65   327  4.05  4.07  2.31
    ##  4 0.290 Premium   I     VS2      62.4    58   334  4.2   4.23  2.63
    ##  5 0.31  Good      J     SI2      63.3    58   335  4.34  4.35  2.75
    ##  6 0.24  Very Good J     VVS2     62.8    57   336  3.94  3.96  2.48
    ##  7 0.24  Very Good I     VVS1     62.3    57   336  3.95  3.98  2.47
    ##  8 0.26  Very Good H     SI1      61.9    55   337  4.07  4.11  2.53
    ##  9 0.22  Fair      E     VS2      65.1    61   337  3.87  3.78  2.49
    ## 10 0.23  Very Good H     VS1      59.4    61   338  4     4.05  2.39
    ## # ... with 53,930 more rows
…
데이터의 Slicing
----------------

여기서 데이터란, data.frame을 뜻한다.

### 열

``` r
# data.name[, column]

# (1) 열 = 변수의 위치를 알고 있을 때
diamonds[ , 1] # tibble안의 vector로 인식
```

    ## # A tibble: 53,940 x 1
    ##    carat
    ##    <dbl>
    ##  1 0.23 
    ##  2 0.21 
    ##  3 0.23 
    ##  4 0.290
    ##  5 0.31 
    ##  6 0.24 
    ##  7 0.24 
    ##  8 0.26 
    ##  9 0.22 
    ## 10 0.23 
    ## # ... with 53,930 more rows

``` r
diamonds[ , 2] # tibble안의 factor로 인식
```

    ## # A tibble: 53,940 x 1
    ##    cut      
    ##    <fct>    
    ##  1 Ideal    
    ##  2 Premium  
    ##  3 Good     
    ##  4 Premium  
    ##  5 Good     
    ##  6 Very Good
    ##  7 Very Good
    ##  8 Very Good
    ##  9 Fair     
    ## 10 Very Good
    ## # ... with 53,930 more rows

``` r
# 예제 1
# 1, 9 , 10 번째 열을 한 번에 가져오시오
diamonds[ , c(1, 9, 10)]
```

    ## # A tibble: 53,940 x 3
    ##    carat     y     z
    ##    <dbl> <dbl> <dbl>
    ##  1 0.23   3.98  2.43
    ##  2 0.21   3.84  2.31
    ##  3 0.23   4.07  2.31
    ##  4 0.290  4.23  2.63
    ##  5 0.31   4.35  2.75
    ##  6 0.24   3.96  2.48
    ##  7 0.24   3.98  2.47
    ##  8 0.26   4.11  2.53
    ##  9 0.22   3.78  2.49
    ## 10 0.23   4.05  2.39
    ## # ... with 53,930 more rows

``` r
# 예제 2
# 3~7번째 열을 한 번에 가져오시오
diamonds[ , 3:7]
```

    ## # A tibble: 53,940 x 5
    ##    color clarity depth table price
    ##    <ord> <ord>   <dbl> <dbl> <int>
    ##  1 E     SI2      61.5    55   326
    ##  2 E     SI1      59.8    61   326
    ##  3 E     VS1      56.9    65   327
    ##  4 I     VS2      62.4    58   334
    ##  5 J     SI2      63.3    58   335
    ##  6 J     VVS2     62.8    57   336
    ##  7 I     VVS1     62.3    57   336
    ##  8 H     SI1      61.9    55   337
    ##  9 E     VS2      65.1    61   337
    ## 10 H     VS1      59.4    61   338
    ## # ... with 53,930 more rows

``` r
# 예제 3
# 짝수 번째 열만 한 번에 가져오시오
diamonds[ , seq(from=2, to=ncol(diamonds), by=2)]
```

    ## # A tibble: 53,940 x 5
    ##    cut       clarity table     x     z
    ##    <fct>     <ord>   <dbl> <dbl> <dbl>
    ##  1 Ideal     SI2        55  3.95  2.43
    ##  2 Premium   SI1        61  3.89  2.31
    ##  3 Good      VS1        65  4.05  2.31
    ##  4 Premium   VS2        58  4.2   2.63
    ##  5 Good      SI2        58  4.34  2.75
    ##  6 Very Good VVS2       57  3.94  2.48
    ##  7 Very Good VVS1       57  3.95  2.47
    ##  8 Very Good SI1        55  4.07  2.53
    ##  9 Fair      VS2        61  3.87  2.49
    ## 10 Very Good VS1        61  4     2.39
    ## # ... with 53,930 more rows

``` r
# (2) 원하는 열(변수)의 이름을 알고 있을 때
diamonds[ , "carat"]
```

    ## # A tibble: 53,940 x 1
    ##    carat
    ##    <dbl>
    ##  1 0.23 
    ##  2 0.21 
    ##  3 0.23 
    ##  4 0.290
    ##  5 0.31 
    ##  6 0.24 
    ##  7 0.24 
    ##  8 0.26 
    ##  9 0.22 
    ## 10 0.23 
    ## # ... with 53,930 more rows

``` r
diamonds[ , "cut"]
```

    ## # A tibble: 53,940 x 1
    ##    cut      
    ##    <fct>    
    ##  1 Ideal    
    ##  2 Premium  
    ##  3 Good     
    ##  4 Premium  
    ##  5 Good     
    ##  6 Very Good
    ##  7 Very Good
    ##  8 Very Good
    ##  9 Fair     
    ## 10 Very Good
    ## # ... with 53,930 more rows

``` r
# 예제 4
# 변수명이 x,y,z인 세 개의 열을 한 번에 가져오시오
diamonds[ , c("x", "y", "z")]
```

    ## # A tibble: 53,940 x 3
    ##        x     y     z
    ##    <dbl> <dbl> <dbl>
    ##  1  3.95  3.98  2.43
    ##  2  3.89  3.84  2.31
    ##  3  4.05  4.07  2.31
    ##  4  4.2   4.23  2.63
    ##  5  4.34  4.35  2.75
    ##  6  3.94  3.96  2.48
    ##  7  3.95  3.98  2.47
    ##  8  4.07  4.11  2.53
    ##  9  3.87  3.78  2.49
    ## 10  4     4.05  2.39
    ## # ... with 53,930 more rows
…
    ## [1] 1 2 3 4 7

``` r
grep(pattern = "c", colnames(diamonds), value = TRUE)
```

    ## [1] "carat"   "cut"     "color"   "clarity" "price"

``` r
diamonds[ , grep(pattern = "c", colnames(diamonds), value = FALSE)]
```

    ## # A tibble: 53,940 x 5
    ##    carat cut       color clarity price
    ##    <dbl> <fct>     <ord> <ord>   <int>
    ##  1 0.23  Ideal     E     SI2       326
    ##  2 0.21  Premium   E     SI1       326
    ##  3 0.23  Good      E     VS1       327
    ##  4 0.290 Premium   I     VS2       334
    ##  5 0.31  Good      J     SI2       335
    ##  6 0.24  Very Good J     VVS2      336
    ##  7 0.24  Very Good I     VVS1      336
    ##  8 0.26  Very Good H     SI1       337
    ##  9 0.22  Fair      E     VS2       337
    ## 10 0.23  Very Good H     VS1       338
    ## # ... with 53,930 more rows

``` r
diamonds[ , grep(pattern = "c", colnames(diamonds), value = TRUE)]
```

    ## # A tibble: 53,940 x 5
    ##    carat cut       color clarity price
    ##    <dbl> <fct>     <ord> <ord>   <int>
    ##  1 0.23  Ideal     E     SI2       326
    ##  2 0.21  Premium   E     SI1       326
    ##  3 0.23  Good      E     VS1       327
    ##  4 0.290 Premium   I     VS2       334
    ##  5 0.31  Good      J     SI2       335
    ##  6 0.24  Very Good J     VVS2      336
    ##  7 0.24  Very Good I     VVS1      336
    ##  8 0.26  Very Good H     SI1       337
    ##  9 0.22  Fair      E     VS2       337
    ## 10 0.23  Very Good H     VS1       338
    ## # ... with 53,930 more rows
…
    ## [1] 1 2 3 4

``` r
grep(pattern = "^c", colnames(diamonds), value = TRUE)
```

    ## [1] "carat"   "cut"     "color"   "clarity"

``` r
diamonds[ , grep(pattern = "^c", colnames(diamonds), value = FALSE)]
```

    ## # A tibble: 53,940 x 4
    ##    carat cut       color clarity
    ##    <dbl> <fct>     <ord> <ord>  
    ##  1 0.23  Ideal     E     SI2    
    ##  2 0.21  Premium   E     SI1    
    ##  3 0.23  Good      E     VS1    
    ##  4 0.290 Premium   I     VS2    
    ##  5 0.31  Good      J     SI2    
    ##  6 0.24  Very Good J     VVS2   
    ##  7 0.24  Very Good I     VVS1   
    ##  8 0.26  Very Good H     SI1    
    ##  9 0.22  Fair      E     VS2    
    ## 10 0.23  Very Good H     VS1    
    ## # ... with 53,930 more rows

``` r
diamonds[ , grep(pattern = "^c", colnames(diamonds), value = TRUE)]
```

    ## # A tibble: 53,940 x 4
    ##    carat cut       color clarity
    ##    <dbl> <fct>     <ord> <ord>  
    ##  1 0.23  Ideal     E     SI2    
    ##  2 0.21  Premium   E     SI1    
    ##  3 0.23  Good      E     VS1    
    ##  4 0.290 Premium   I     VS2    
    ##  5 0.31  Good      J     SI2    
    ##  6 0.24  Very Good J     VVS2   
    ##  7 0.24  Very Good I     VVS1   
    ##  8 0.26  Very Good H     SI1    
    ##  9 0.22  Fair      E     VS2    
    ## 10 0.23  Very Good H     VS1    
    ## # ... with 53,930 more rows
…
    ## [1] 6 7

``` r
grep(pattern = "e$", colnames(diamonds), value = TRUE)
```

    ## [1] "table" "price"

``` r
diamonds[ , grep(pattern = "e$", colnames(diamonds), value = FALSE)]
```

    ## # A tibble: 53,940 x 2
    ##    table price
    ##    <dbl> <int>
    ##  1    55   326
    ##  2    61   326
    ##  3    65   327
    ##  4    58   334
    ##  5    58   335
    ##  6    57   336
    ##  7    57   336
    ##  8    55   337
    ##  9    61   337
    ## 10    61   338
    ## # ... with 53,930 more rows

``` r
diamonds[ , grep(pattern = "e$", colnames(diamonds), value = TRUE)]
```

    ## # A tibble: 53,940 x 2
    ##    table price
    ##    <dbl> <int>
    ##  1    55   326
    ##  2    61   326
    ##  3    65   327
    ##  4    58   334
    ##  5    58   335
    ##  6    57   336
    ##  7    57   336
    ##  8    55   337
    ##  9    61   337
    ## 10    61   338
    ## # ... with 53,930 more rows

``` r
# 참고 : 글자 처리할 때 사용하는 부호들 ^, $ 등등을 정규 표현식이라고 한다. ( regular expression )

# "ca" 라고 하면, ca가 들어가는 글자 탐색, "^ca"은 ca로 시작하는 글자
# "[ca]" 라고 하면, "c" 또는 "a"를 포함하는 경우를 뜻한다.
# "^[ca]", "[ca]$" 등등 마치 수식처럼 원하는 택스트를 찾을 수 있다.
# "(ca)|(cd)" : ca 또는 cd를 포함하는 경우

# (4) dplyr::select() 를 이용하여 열을 추출하기
# dplyr::select(data.name, variable, ...)
dplyr::select(diamonds, carat)
```

    ## # A tibble: 53,940 x 1
    ##    carat
    ##    <dbl>
    ##  1 0.23 
    ##  2 0.21 
    ##  3 0.23 
    ##  4 0.290
    ##  5 0.31 
    ##  6 0.24 
    ##  7 0.24 
    ##  8 0.26 
    ##  9 0.22 
    ## 10 0.23 
    ## # ... with 53,930 more rows

``` r
dplyr::select(diamonds, carat, cut)
```

    ## # A tibble: 53,940 x 2
    ##    carat cut      
    ##    <dbl> <fct>    
    ##  1 0.23  Ideal    
    ##  2 0.21  Premium  
    ##  3 0.23  Good     
    ##  4 0.290 Premium  
    ##  5 0.31  Good     
    ##  6 0.24  Very Good
    ##  7 0.24  Very Good
    ##  8 0.26  Very Good
    ##  9 0.22  Fair     
    ## 10 0.23  Very Good
    ## # ... with 53,930 more rows

``` r
dplyr::select(diamonds, -carat) # carat을 제외한 변수들
```

    ## # A tibble: 53,940 x 9
    ##    cut       color clarity depth table price     x     y     z
    ##    <fct>     <ord> <ord>   <dbl> <dbl> <int> <dbl> <dbl> <dbl>
    ##  1 Ideal     E     SI2      61.5    55   326  3.95  3.98  2.43
    ##  2 Premium   E     SI1      59.8    61   326  3.89  3.84  2.31
    ##  3 Good      E     VS1      56.9    65   327  4.05  4.07  2.31
    ##  4 Premium   I     VS2      62.4    58   334  4.2   4.23  2.63
    ##  5 Good      J     SI2      63.3    58   335  4.34  4.35  2.75
    ##  6 Very Good J     VVS2     62.8    57   336  3.94  3.96  2.48
    ##  7 Very Good I     VVS1     62.3    57   336  3.95  3.98  2.47
    ##  8 Very Good H     SI1      61.9    55   337  4.07  4.11  2.53
    ##  9 Fair      E     VS2      65.1    61   337  3.87  3.78  2.49
    ## 10 Very Good H     VS1      59.4    61   338  4     4.05  2.39
    ## # ... with 53,930 more rows

``` r
dplyr::select(diamonds, -c(carat,cut))
```

    ## # A tibble: 53,940 x 8
    ##    color clarity depth table price     x     y     z
    ##    <ord> <ord>   <dbl> <dbl> <int> <dbl> <dbl> <dbl>
    ##  1 E     SI2      61.5    55   326  3.95  3.98  2.43
    ##  2 E     SI1      59.8    61   326  3.89  3.84  2.31
    ##  3 E     VS1      56.9    65   327  4.05  4.07  2.31
    ##  4 I     VS2      62.4    58   334  4.2   4.23  2.63
    ##  5 J     SI2      63.3    58   335  4.34  4.35  2.75
    ##  6 J     VVS2     62.8    57   336  3.94  3.96  2.48
    ##  7 I     VVS1     62.3    57   336  3.95  3.98  2.47
    ##  8 H     SI1      61.9    55   337  4.07  4.11  2.53
    ##  9 E     VS2      65.1    61   337  3.87  3.78  2.49
    ## 10 H     VS1      59.4    61   338  4     4.05  2.39
    ## # ... with 53,930 more rows

``` r
dplyr::select(diamonds, depth:y) # depth부터 y까지
```

    ## # A tibble: 53,940 x 5
    ##    depth table price     x     y
    ##    <dbl> <dbl> <int> <dbl> <dbl>
    ##  1  61.5    55   326  3.95  3.98
    ##  2  59.8    61   326  3.89  3.84
    ##  3  56.9    65   327  4.05  4.07
    ##  4  62.4    58   334  4.2   4.23
    ##  5  63.3    58   335  4.34  4.35
    ##  6  62.8    57   336  3.94  3.96
    ##  7  62.3    57   336  3.95  3.98
    ##  8  61.9    55   337  4.07  4.11
    ##  9  65.1    61   337  3.87  3.78
    ## 10  59.4    61   338  4     4.05
    ## # ... with 53,930 more rows

``` r
dplyr::select(diamonds, contains("c")) # c를 포함하는 변수
```

    ## # A tibble: 53,940 x 5
    ##    carat cut       color clarity price
    ##    <dbl> <fct>     <ord> <ord>   <int>
    ##  1 0.23  Ideal     E     SI2       326
    ##  2 0.21  Premium   E     SI1       326
    ##  3 0.23  Good      E     VS1       327
    ##  4 0.290 Premium   I     VS2       334
    ##  5 0.31  Good      J     SI2       335
    ##  6 0.24  Very Good J     VVS2      336
    ##  7 0.24  Very Good I     VVS1      336
    ##  8 0.26  Very Good H     SI1       337
    ##  9 0.22  Fair      E     VS2       337
    ## 10 0.23  Very Good H     VS1       338
    ## # ... with 53,930 more rows

``` r
dplyr::select(diamonds, starts_with("c")) # c로 시작하는 변수 
```

    ## # A tibble: 53,940 x 4
    ##    carat cut       color clarity
    ##    <dbl> <fct>     <ord> <ord>  
    ##  1 0.23  Ideal     E     SI2    
    ##  2 0.21  Premium   E     SI1    
    ##  3 0.23  Good      E     VS1    
    ##  4 0.290 Premium   I     VS2    
    ##  5 0.31  Good      J     SI2    
    ##  6 0.24  Very Good J     VVS2   
    ##  7 0.24  Very Good I     VVS1   
    ##  8 0.26  Very Good H     SI1    
    ##  9 0.22  Fair      E     VS2    
    ## 10 0.23  Very Good H     VS1    
    ## # ... with 53,930 more rows

``` r
dplyr::select(diamonds, ends_with("e")) # e로 끝나는 변수
```

    ## # A tibble: 53,940 x 2
    ##    table price
    ##    <dbl> <int>
    ##  1    55   326
    ##  2    61   326
    ##  3    65   327
    ##  4    58   334
    ##  5    58   335
    ##  6    57   336
    ##  7    57   336
    ##  8    55   337
    ##  9    61   337
    ## 10    61   338
    ## # ... with 53,930 more rows
…
``` r
diamonds[seq(from = 1, to = nrow(diamonds), by=100), ]
```

    ## # A tibble: 540 x 10
    ##    carat cut       color clarity depth table price     x     y     z
    ##    <dbl> <fct>     <ord> <ord>   <dbl> <dbl> <int> <dbl> <dbl> <dbl>
    ##  1  0.23 Ideal     E     SI2      61.5    55   326  3.95  3.98  2.43
    ##  2  0.75 Very Good D     SI1      63.2    56  2760  5.8   5.75  3.65
    ##  3  0.7  Very Good E     SI1      59.9    63  2777  5.76  5.7   3.43
    ##  4  0.77 Ideal     I     VS1      61.5    59  2798  5.87  5.91  3.62
    ##  5  0.3  Good      H     SI1      63.8    55   554  4.26  4.2   2.7 
    ##  6  0.71 Ideal     D     SI1      60.2    56  2822  5.86  5.83  3.52
    ##  7  0.7  Premium   F     VS2      59.4    61  2838  5.83  5.79  3.45
    ##  8  0.7  Very Good E     VS1      62.4    56  2854  5.64  5.7   3.54
    ##  9  1.22 Premium   E     I1       60.9    57  2862  6.93  6.88  4.21
    ## 10  0.73 Premium   E     VS1      62.6    60  2876  5.68  5.75  3.58
    ## # ... with 530 more rows

``` r
# (2) 비교 연산자와 논리 연산자를 사용하는 경우
# 조건을 만족하는 데이터를 추출할 때 사용
# data[조건1, ]
# data[조건1 & 조건2 ... , ]
# data[조건1 | 조건2 ... , ]


# cut이 fair인 것을 추출하기
diamonds[diamonds$cut == "Fair", ]
```

    ## # A tibble: 1,610 x 10
    ##    carat cut   color clarity depth table price     x     y     z
    ##    <dbl> <fct> <ord> <ord>   <dbl> <dbl> <int> <dbl> <dbl> <dbl>
    ##  1  0.22 Fair  E     VS2      65.1    61   337  3.87  3.78  2.49
    ##  2  0.86 Fair  E     SI2      55.1    69  2757  6.45  6.33  3.52
    ##  3  0.96 Fair  F     SI2      66.3    62  2759  6.27  5.95  4.07
    ##  4  0.7  Fair  F     VS2      64.5    57  2762  5.57  5.53  3.58
    ##  5  0.7  Fair  F     VS2      65.3    55  2762  5.63  5.58  3.66
    ##  6  0.91 Fair  H     SI2      64.4    57  2763  6.11  6.09  3.93
    ##  7  0.91 Fair  H     SI2      65.7    60  2763  6.03  5.99  3.95
    ##  8  0.98 Fair  H     SI2      67.9    60  2777  6.05  5.97  4.08
    ##  9  0.84 Fair  G     SI1      55.1    67  2782  6.39  6.2   3.47
    ## 10  1.01 Fair  E     I1       64.5    58  2788  6.29  6.21  4.03
    ## # ... with 1,600 more rows

``` r
# price가 18000 이상인 것을 추출하기
diamonds[diamonds$price >= 18000, ]
```

    ## # A tibble: 312 x 10
    ##    carat cut       color clarity depth table price     x     y     z
    ##    <dbl> <fct>     <ord> <ord>   <dbl> <dbl> <int> <dbl> <dbl> <dbl>
    ##  1  2.16 Ideal     G     SI2      62.5  54.2 18001  8.23  8.27  5.16
    ##  2  2.09 Premium   F     SI2      61.7  59   18002  8.23  8.21  5.07
    ##  3  2.18 Premium   G     SI2      61.9  60   18003  8.29  8.24  5.12
    ##  4  2.06 Very Good G     SI2      62.3  59   18005  8.07  8.2   5.07
    ##  5  2.25 Premium   D     SI2      60.4  59   18007  8.54  8.48  5.13
    ##  6  1.76 Very Good G     VS1      62.8  55.4 18014  7.7   7.74  4.85
    ##  7  2.05 Ideal     G     SI2      61.6  56   18017  8.11  8.16  5.01
    ##  8  5.01 Fair      J     I1       65.5  59   18018 10.7  10.5   6.98
    ##  9  2.51 Premium   J     VS2      62.2  58   18020  8.73  8.67  5.41
    ## 10  2    Good      H     VS2      63.8  59   18023  7.88  8.01  5.07
    ## # ... with 302 more rows
…
``` r
# cut은 "Fair" 이거나 price는 18000 이상인 것만 추출하기
diamonds[(diamonds$cut == "Fair") | (diamonds$price >= 18000), ]
```

    ## # A tibble: 1,913 x 10
    ##    carat cut   color clarity depth table price     x     y     z
    ##    <dbl> <fct> <ord> <ord>   <dbl> <dbl> <int> <dbl> <dbl> <dbl>
    ##  1  0.22 Fair  E     VS2      65.1    61   337  3.87  3.78  2.49
    ##  2  0.86 Fair  E     SI2      55.1    69  2757  6.45  6.33  3.52
    ##  3  0.96 Fair  F     SI2      66.3    62  2759  6.27  5.95  4.07
    ##  4  0.7  Fair  F     VS2      64.5    57  2762  5.57  5.53  3.58
    ##  5  0.7  Fair  F     VS2      65.3    55  2762  5.63  5.58  3.66
    ##  6  0.91 Fair  H     SI2      64.4    57  2763  6.11  6.09  3.93
    ##  7  0.91 Fair  H     SI2      65.7    60  2763  6.03  5.99  3.95
    ##  8  0.98 Fair  H     SI2      67.9    60  2777  6.05  5.97  4.08
    ##  9  0.84 Fair  G     SI1      55.1    67  2782  6.39  6.2   3.47
    ## 10  1.01 Fair  E     I1       64.5    58  2788  6.29  6.21  4.03
    ## # ... with 1,903 more rows

``` r
# cut은 "Fair" 이거나 또는 "Ideal" 인 것을 추출하기
diamonds[(diamonds$cut == "Fair") | (diamonds$cut == "Ideal"), ]
```

    ## # A tibble: 23,161 x 10
    ##    carat cut   color clarity depth table price     x     y     z
    ##    <dbl> <fct> <ord> <ord>   <dbl> <dbl> <int> <dbl> <dbl> <dbl>
    ##  1  0.23 Ideal E     SI2      61.5    55   326  3.95  3.98  2.43
    ##  2  0.22 Fair  E     VS2      65.1    61   337  3.87  3.78  2.49
    ##  3  0.23 Ideal J     VS1      62.8    56   340  3.93  3.9   2.46
    ##  4  0.31 Ideal J     SI2      62.2    54   344  4.35  4.37  2.71
    ##  5  0.3  Ideal I     SI2      62      54   348  4.31  4.34  2.68
    ##  6  0.33 Ideal I     SI2      61.8    55   403  4.49  4.51  2.78
    ##  7  0.33 Ideal I     SI2      61.2    56   403  4.49  4.5   2.75
    ##  8  0.33 Ideal J     SI1      61.1    56   403  4.49  4.55  2.76
    ##  9  0.23 Ideal G     VS1      61.9    54   404  3.93  3.95  2.44
    ## 10  0.32 Ideal I     SI1      60.9    55   404  4.45  4.48  2.72
    ## # ... with 23,151 more rows
…
