…
### Missing Value 처리하기

``` r
# (1) 처리하지 않고 분석
# naniar::miss_var_summary(data)
# naniar::miss_case_summary(data)

# Missing Value 확인하기
naniar::miss_var_summary(house.price)
```

    ## # A tibble: 81 x 3
    ##    variable     n_miss pct_miss
    ##    <chr>         <int>    <dbl>
    ##  1 PoolQC         2909    99.7 
    ##  2 MiscFeature    2814    96.4 
    ##  3 Alley          2721    93.2 
    ##  4 Fence          2348    80.4 
    ##  5 SalePrice      1459    50.0 
    ##  6 FireplaceQu    1420    48.6 
    ##  7 LotFrontage     486    16.6 
    ##  8 GarageYrBlt     159     5.45
    ##  9 GarageFinish    159     5.45
    ## 10 GarageQual      159     5.45
    ## # ... with 71 more rows

``` r
# 전체 데이터의 5%를 넘어가면 좋지 않은 데이터이다.

# 행별로 Missing Value 확인하기
naniar::miss_case_summary(house.price)
```

    ## # A tibble: 2,919 x 3
    ##     case n_miss pct_miss
    ##    <int>  <int>    <dbl>
    ##  1  1848     17     21.0
    ##  2  2121     16     19.8
    ##  3  2190     16     19.8
    ##  4  2191     16     19.8
    ##  5  2194     16     19.8
    ##  6  2553     16     19.8
    ##  7  2892     16     19.8
    ##  8    40     15     18.5
    ##  9   534     15     18.5
    ## 10  1012     15     18.5
    ## # ... with 2,909 more rows
…
